{"meta":{"page":{"currentPage":1,"from":1,"lastPage":11,"perPage":1,"to":1,"total":11}},"jsonapi":{"version":"1.0"},"links":{"first":"https:\/\/api.lemonsqueezy.com\/v1\/orders?page%5Bnumber%5D=1&page%5Bsize%5D=1&sort=-createdAt","last":"https:\/\/api.lemonsqueezy.com\/v1\/orders?page%5Bnumber%5D=11&page%5Bsize%5D=1&sort=-createdAt","next":"https:\/\/api.lemonsqueezy.com\/v1\/orders?page%5Bnumber%5D=2&page%5Bsize%5D=1&sort=-createdAt"},"data":[{"type":"orders","id":"6811811","attributes":{"store_id":173583,"customer_id":7128955,"identifier":"79bf7050-c092-4bd4-8971-b302e7823fe1","order_number":17358310,"user_name":"Habib","user_email":"habibullahkcom@gmail.com","currency":"USD","currency_rate":"1.00000000","tax_name":"Sales Tax","tax_rate":"0.00","tax_inclusive":false,"status":"paid","status_formatted":"Paid","refunded":false,"refunded_at":null,"subtotal":999,"discount_total":0,"tax":0,"setup_fee":0,"total":999,"refunded_amount":0,"subtotal_usd":999,"discount_total_usd":0,"tax_usd":0,"setup_fee_usd":0,"total_usd":999,"refunded_amount_usd":0,"subtotal_formatted":"$9.99","discount_total_formatted":"$0.00","tax_formatted":"$0.00","setup_fee_formatted":"$0.00","total_formatted":"$9.99","refunded_amount_formatted":"$0.00","first_order_item":{"id":6753046,"order_id":6811811,"product_id":560480,"variant_id":871397,"price_id":1714514,"product_name":"Echo Unlimited MONTHLY","variant_name":"Default","price":999,"quantity":1,"created_at":"2025-11-12T00:33:27.000000Z","updated_at":"2025-11-12T00:33:27.000000Z","test_mode":false},"urls":{"receipt":"https:\/\/app.lemonsqueezy.com\/my-orders\/79bf7050-c092-4bd4-8971-b302e7823fe1?expires=1775184911&signature=483b5431b672f5b372443d85928824d8aea0401e56cf1575dd736569f6aca54c"},"created_at":"2025-11-12T00:33:18.000000Z","updated_at":"2025-11-12T00:38:27.000000Z","test_mode":false},"relationships":{"store":{"links":{"related":"https:\/\/api.lemonsqueezy.com\/v1\/orders\/6811811\/store","self":"https:\/\/api.lemonsqueezy.com\/v1\/orders\/6811811\/relationships\/store"}},"customer":{"links":{"related":"https:\/\/api.lemonsqueezy.com\/v1\/orders\/6811811\/customer","self":"https:\/\/api.lemonsqueezy.com\/v1\/orders\/6811811\/relationships\/customer"}},"order-items":{"links":{"related":"https:\/\/api.lemonsqueezy.com\/v1\/orders\/6811811\/order-items","self":"https:\/\/api.lemonsqueezy.com\/v1\/orders\/6811811\/relationships\/order-items"}},"subscriptions":{"links":{"related":"https:\/\/api.lemonsqueezy.com\/v1\/orders\/6811811\/subscriptions","self":"https:\/\/api.lemonsqueezy.com\/v1\/orders\/6811811\/relationships\/subscriptions"}},"license-keys":{"links":{"related":"https:\/\/api.lemonsqueezy.com\/v1\/orders\/6811811\/license-keys","self":"https:\/\/api.lemonsqueezy.com\/v1\/orders\/6811811\/relationships\/license-keys"}},"discount-redemptions":{"links":{"related":"https:\/\/api.lemonsqueezy.com\/v1\/orders\/6811811\/discount-redemptions","self":"https:\/\/api.lemonsqueezy.com\/v1\/orders\/6811811\/relationships\/discount-redemptions"}}},"links":{"self":"https:\/\/api.lemonsqueezy.com\/v1\/orders\/6811811"}}]}