{"meta":{"page":{"currentPage":1,"from":1,"lastPage":2,"perPage":10,"to":10,"total":11}},"jsonapi":{"version":"1.0"},"links":{"first":"https:\/\/api.lemonsqueezy.com\/v1\/orders?page%5Bnumber%5D=1&page%5Bsize%5D=10&sort=-createdAt","last":"https:\/\/api.lemonsqueezy.com\/v1\/orders?page%5Bnumber%5D=2&page%5Bsize%5D=10&sort=-createdAt","next":"https:\/\/api.lemonsqueezy.com\/v1\/orders?page%5Bnumber%5D=2&page%5Bsize%5D=10&sort=-createdAt"},"data":[{"type":"orders","id":"6811811","attributes":{"store_id":173583,"customer_id":7128955,"identifier":"79bf7050-c092-4bd4-8971-b302e7823fe1","order_number":17358310,"user_name":"Habib","user_email":"habibullahkcom@gmail.com","currency":"USD","currency_rate":"1.00000000","tax_name":"Sales Tax","tax_rate":"0.00","tax_inclusive":false,"status":"paid","status_formatted":"Paid","refunded":false,"refunded_at":null,"subtotal":999,"discount_total":0,"tax":0,"setup_fee":0,"total":999,"refunded_amount":0,"subtotal_usd":999,"discount_total_usd":0,"tax_usd":0,"setup_fee_usd":0,"total_usd":999,"refunded_amount_usd":0,"subtotal_formatted":"$9.99","discount_total_formatted":"$0.00","tax_formatted":"$0.00","setup_fee_formatted":"$0.00","total_formatted":"$9.99","refunded_amount_formatted":"$0.00","first_order_item":{"id":6753046,"order_id":6811811,"product_id":560480,"variant_id":871397,"price_id":1714514,"product_name":"Echo Unlimited MONTHLY","variant_name":"Default","price":999,"quantity":1,"created_at":"2025-11-12T00:33:27.000000Z","updated_at":"2025-11-12T00:33:27.000000Z","test_mode":false},"urls":{"receipt":"https:\/\/app.lemonsqueezy.com\/my-orders\/79bf7050-c092-4bd4-8971-b302e7823fe1?expires=1775185259&signature=64863173ba2d7b937835c37cc107951a176a00d96fddf50cba2c2a3923dc60f7"},"created_at":"2025-11-12T00:33:18.000000Z","updated_at":"2025-11-12T00:38:27.000000Z","test_mode":false},"relationships":{"store":{"links":{"related":"https:\/\/api.lemonsqueezy.com\/v1\/orders\/6811811\/store","self":"https:\/\/api.lemonsqueezy.com\/v1\/orders\/6811811\/relationships\/store"}},"customer":{"links":{"related":"https:\/\/api.lemonsqueezy.com\/v1\/orders\/6811811\/customer","self":"https:\/\/api.lemonsqueezy.com\/v1\/orders\/6811811\/relationships\/customer"}},"order-items":{"links":{"related":"https:\/\/api.lemonsqueezy.com\/v1\/orders\/6811811\/order-items","self":"https:\/\/api.lemonsqueezy.com\/v1\/orders\/6811811\/relationships\/order-items"}},"subscriptions":{"links":{"related":"https:\/\/api.lemonsqueezy.com\/v1\/orders\/6811811\/subscriptions","self":"https:\/\/api.lemonsqueezy.com\/v1\/orders\/6811811\/relationships\/subscriptions"}},"license-keys":{"links":{"related":"https:\/\/api.lemonsqueezy.com\/v1\/orders\/6811811\/license-keys","self":"https:\/\/api.lemonsqueezy.com\/v1\/orders\/6811811\/relationships\/license-keys"}},"discount-redemptions":{"links":{"related":"https:\/\/api.lemonsqueezy.com\/v1\/orders\/6811811\/discount-redemptions","self":"https:\/\/api.lemonsqueezy.com\/v1\/orders\/6811811\/relationships\/discount-redemptions"}}},"links":{"self":"https:\/\/api.lemonsqueezy.com\/v1\/orders\/6811811"}},{"type":"orders","id":"6119667","attributes":{"store_id":173583,"customer_id":6487332,"identifier":"11b54141-374a-4a72-84a8-5f276404e11b","order_number":1735839,"user_name":"Joel Strong","user_email":"jlstrong@outlook.com","currency":"USD","currency_rate":"1.00000000","tax_name":"Sales Tax","tax_rate":"0.00","tax_inclusive":false,"status":"paid","status_formatted":"Paid","refunded":false,"refunded_at":null,"subtotal":9999,"discount_total":0,"tax":0,"setup_fee":0,"total":9999,"refunded_amount":0,"subtotal_usd":9999,"discount_total_usd":0,"tax_usd":0,"setup_fee_usd":0,"total_usd":9999,"refunded_amount_usd":0,"subtotal_formatted":"$99.99","discount_total_formatted":"$0.00","tax_formatted":"$0.00","setup_fee_formatted":"$0.00","total_formatted":"$99.99","refunded_amount_formatted":"$0.00","first_order_item":{"id":6057522,"order_id":6119667,"product_id":560475,"variant_id":871392,"price_id":1345396,"product_name":"Echo Unlimited LIFE","variant_name":"Default","price":9999,"quantity":1,"created_at":"2025-08-07T02:38:34.000000Z","updated_at":"2025-08-07T02:38:34.000000Z","test_mode":false},"urls":{"receipt":"https:\/\/app.lemonsqueezy.com\/my-orders\/11b54141-374a-4a72-84a8-5f276404e11b?expires=1775185259&signature=8c07d36c465af3e5e31c41053dbf7f9a9f8a46dc2c8066eaa9b66162d85f9721"},"created_at":"2025-08-07T02:38:32.000000Z","updated_at":"2025-08-15T00:47:16.000000Z","test_mode":false},"relationships":{"store":{"links":{"related":"https:\/\/api.lemonsqueezy.com\/v1\/orders\/6119667\/store","self":"https:\/\/api.lemonsqueezy.com\/v1\/orders\/6119667\/relationships\/store"}},"customer":{"links":{"related":"https:\/\/api.lemonsqueezy.com\/v1\/orders\/6119667\/customer","self":"https:\/\/api.lemonsqueezy.com\/v1\/orders\/6119667\/relationships\/customer"}},"order-items":{"links":{"related":"https:\/\/api.lemonsqueezy.com\/v1\/orders\/6119667\/order-items","self":"https:\/\/api.lemonsqueezy.com\/v1\/orders\/6119667\/relationships\/order-items"}},"subscriptions":{"links":{"related":"https:\/\/api.lemonsqueezy.com\/v1\/orders\/6119667\/subscriptions","self":"https:\/\/api.lemonsqueezy.com\/v1\/orders\/6119667\/relationships\/subscriptions"}},"license-keys":{"links":{"related":"https:\/\/api.lemonsqueezy.com\/v1\/orders\/6119667\/license-keys","self":"https:\/\/api.lemonsqueezy.com\/v1\/orders\/6119667\/relationships\/license-keys"}},"discount-redemptions":{"links":{"related":"https:\/\/api.lemonsqueezy.com\/v1\/orders\/6119667\/discount-redemptions","self":"https:\/\/api.lemonsqueezy.com\/v1\/orders\/6119667\/relationships\/discount-redemptions"}}},"links":{"self":"https:\/\/api.lemonsqueezy.com\/v1\/orders\/6119667"}},{"type":"orders","id":"6075442","attributes":{"store_id":173583,"customer_id":6444989,"identifier":"9163d851-e536-4e80-bc52-7d985ec33ed3","order_number":1735838,"user_name":"Peter Middleton","user_email":"fortean@virginmedia.com","currency":"USD","currency_rate":"1.00000000","tax_name":"VAT","tax_rate":"20.00","tax_inclusive":false,"status":"paid","status_formatted":"Paid","refunded":false,"refunded_at":null,"subtotal":9999,"discount_total":0,"tax":2000,"setup_fee":0,"total":11999,"refunded_amount":0,"subtotal_usd":9999,"discount_total_usd":0,"tax_usd":2000,"setup_fee_usd":0,"total_usd":11999,"refunded_amount_usd":0,"subtotal_formatted":"$99.99","discount_total_formatted":"$0.00","tax_formatted":"$20.00","setup_fee_formatted":"$0.00","total_formatted":"$119.99","refunded_amount_formatted":"$0.00","first_order_item":{"id":6013530,"order_id":6075442,"product_id":560475,"variant_id":871392,"price_id":1345396,"product_name":"Echo Unlimited LIFE","variant_name":"Default","price":9999,"quantity":1,"created_at":"2025-08-01T12:07:10.000000Z","updated_at":"2025-08-01T12:07:10.000000Z","test_mode":false},"urls":{"receipt":"https:\/\/app.lemonsqueezy.com\/my-orders\/9163d851-e536-4e80-bc52-7d985ec33ed3?expires=1775185259&signature=e011c1d09c0d4a6e93f7978a48c3a2dd5628353a547efd5b6d4b344ab98c43ae"},"created_at":"2025-08-01T12:06:57.000000Z","updated_at":"2025-08-15T00:47:16.000000Z","test_mode":false},"relationships":{"store":{"links":{"related":"https:\/\/api.lemonsqueezy.com\/v1\/orders\/6075442\/store","self":"https:\/\/api.lemonsqueezy.com\/v1\/orders\/6075442\/relationships\/store"}},"customer":{"links":{"related":"https:\/\/api.lemonsqueezy.com\/v1\/orders\/6075442\/customer","self":"https:\/\/api.lemonsqueezy.com\/v1\/orders\/6075442\/relationships\/customer"}},"order-items":{"links":{"related":"https:\/\/api.lemonsqueezy.com\/v1\/orders\/6075442\/order-items","self":"https:\/\/api.lemonsqueezy.com\/v1\/orders\/6075442\/relationships\/order-items"}},"subscriptions":{"links":{"related":"https:\/\/api.lemonsqueezy.com\/v1\/orders\/6075442\/subscriptions","self":"https:\/\/api.lemonsqueezy.com\/v1\/orders\/6075442\/relationships\/subscriptions"}},"license-keys":{"links":{"related":"https:\/\/api.lemonsqueezy.com\/v1\/orders\/6075442\/license-keys","self":"https:\/\/api.lemonsqueezy.com\/v1\/orders\/6075442\/relationships\/license-keys"}},"discount-redemptions":{"links":{"related":"https:\/\/api.lemonsqueezy.com\/v1\/orders\/6075442\/discount-redemptions","self":"https:\/\/api.lemonsqueezy.com\/v1\/orders\/6075442\/relationships\/discount-redemptions"}}},"links":{"self":"https:\/\/api.lemonsqueezy.com\/v1\/orders\/6075442"}},{"type":"orders","id":"5928940","attributes":{"store_id":173583,"customer_id":6286079,"identifier":"f9fbb93d-8906-4fa1-9b59-eed73bd50fbb","order_number":1735837,"user_name":"Varun Mamidi","user_email":"mamidi.varun@gmail.com","currency":"USD","currency_rate":"1.00000000","tax_name":"VAT","tax_rate":"20.00","tax_inclusive":false,"status":"paid","status_formatted":"Paid","refunded":false,"refunded_at":null,"subtotal":1499,"discount_total":0,"tax":300,"setup_fee":0,"total":1799,"refunded_amount":0,"subtotal_usd":1499,"discount_total_usd":0,"tax_usd":300,"setup_fee_usd":0,"total_usd":1799,"refunded_amount_usd":0,"subtotal_formatted":"$14.99","discount_total_formatted":"$0.00","tax_formatted":"$3.00","setup_fee_formatted":"$0.00","total_formatted":"$17.99","refunded_amount_formatted":"$0.00","first_order_item":{"id":5868181,"order_id":5928940,"product_id":560480,"variant_id":871397,"price_id":1345403,"product_name":"Echo Unlimited MONTHLY","variant_name":"Default","price":1499,"quantity":1,"created_at":"2025-07-11T18:02:37.000000Z","updated_at":"2025-07-11T18:02:37.000000Z","test_mode":false},"urls":{"receipt":"https:\/\/app.lemonsqueezy.com\/my-orders\/f9fbb93d-8906-4fa1-9b59-eed73bd50fbb?expires=1775185259&signature=2f7a9828b35a9b3b57220096ce9d18eca86a6a1cf703483f201bf30a49622b98"},"created_at":"2025-07-11T18:02:37.000000Z","updated_at":"2025-07-15T00:51:44.000000Z","test_mode":false},"relationships":{"store":{"links":{"related":"https:\/\/api.lemonsqueezy.com\/v1\/orders\/5928940\/store","self":"https:\/\/api.lemonsqueezy.com\/v1\/orders\/5928940\/relationships\/store"}},"customer":{"links":{"related":"https:\/\/api.lemonsqueezy.com\/v1\/orders\/5928940\/customer","self":"https:\/\/api.lemonsqueezy.com\/v1\/orders\/5928940\/relationships\/customer"}},"order-items":{"links":{"related":"https:\/\/api.lemonsqueezy.com\/v1\/orders\/5928940\/order-items","self":"https:\/\/api.lemonsqueezy.com\/v1\/orders\/5928940\/relationships\/order-items"}},"subscriptions":{"links":{"related":"https:\/\/api.lemonsqueezy.com\/v1\/orders\/5928940\/subscriptions","self":"https:\/\/api.lemonsqueezy.com\/v1\/orders\/5928940\/relationships\/subscriptions"}},"license-keys":{"links":{"related":"https:\/\/api.lemonsqueezy.com\/v1\/orders\/5928940\/license-keys","self":"https:\/\/api.lemonsqueezy.com\/v1\/orders\/5928940\/relationships\/license-keys"}},"discount-redemptions":{"links":{"related":"https:\/\/api.lemonsqueezy.com\/v1\/orders\/5928940\/discount-redemptions","self":"https:\/\/api.lemonsqueezy.com\/v1\/orders\/5928940\/relationships\/discount-redemptions"}}},"links":{"self":"https:\/\/api.lemonsqueezy.com\/v1\/orders\/5928940"}},{"type":"orders","id":"5928296","attributes":{"store_id":173583,"customer_id":6285394,"identifier":"21ac9bb9-8837-4b28-8af0-94d0979540e2","order_number":1735836,"user_name":"YVAN PEARSON","user_email":"yvan.pearson@gmail.com","currency":"USD","currency_rate":"1.00000000","tax_name":"Sales Tax","tax_rate":"6.25","tax_inclusive":false,"status":"paid","status_formatted":"Paid","refunded":false,"refunded_at":null,"subtotal":9999,"discount_total":0,"tax":625,"setup_fee":0,"total":10624,"refunded_amount":0,"subtotal_usd":9999,"discount_total_usd":0,"tax_usd":625,"setup_fee_usd":0,"total_usd":10624,"refunded_amount_usd":0,"subtotal_formatted":"$99.99","discount_total_formatted":"$0.00","tax_formatted":"$6.25","setup_fee_formatted":"$0.00","total_formatted":"$106.24","refunded_amount_formatted":"$0.00","first_order_item":{"id":5867539,"order_id":5928296,"product_id":560475,"variant_id":871392,"price_id":1345396,"product_name":"Echo Unlimited LIFE","variant_name":"Default","price":9999,"quantity":1,"created_at":"2025-07-11T16:07:50.000000Z","updated_at":"2025-07-11T16:07:50.000000Z","test_mode":false},"urls":{"receipt":"https:\/\/app.lemonsqueezy.com\/my-orders\/21ac9bb9-8837-4b28-8af0-94d0979540e2?expires=1775185259&signature=4bbede8a40cb6ba3cf5ee931b937c98f370aa63540ec3d0ca006d8a12cdfdcbe"},"created_at":"2025-07-11T16:07:49.000000Z","updated_at":"2025-07-15T00:51:44.000000Z","test_mode":false},"relationships":{"store":{"links":{"related":"https:\/\/api.lemonsqueezy.com\/v1\/orders\/5928296\/store","self":"https:\/\/api.lemonsqueezy.com\/v1\/orders\/5928296\/relationships\/store"}},"customer":{"links":{"related":"https:\/\/api.lemonsqueezy.com\/v1\/orders\/5928296\/customer","self":"https:\/\/api.lemonsqueezy.com\/v1\/orders\/5928296\/relationships\/customer"}},"order-items":{"links":{"related":"https:\/\/api.lemonsqueezy.com\/v1\/orders\/5928296\/order-items","self":"https:\/\/api.lemonsqueezy.com\/v1\/orders\/5928296\/relationships\/order-items"}},"subscriptions":{"links":{"related":"https:\/\/api.lemonsqueezy.com\/v1\/orders\/5928296\/subscriptions","self":"https:\/\/api.lemonsqueezy.com\/v1\/orders\/5928296\/relationships\/subscriptions"}},"license-keys":{"links":{"related":"https:\/\/api.lemonsqueezy.com\/v1\/orders\/5928296\/license-keys","self":"https:\/\/api.lemonsqueezy.com\/v1\/orders\/5928296\/relationships\/license-keys"}},"discount-redemptions":{"links":{"related":"https:\/\/api.lemonsqueezy.com\/v1\/orders\/5928296\/discount-redemptions","self":"https:\/\/api.lemonsqueezy.com\/v1\/orders\/5928296\/relationships\/discount-redemptions"}}},"links":{"self":"https:\/\/api.lemonsqueezy.com\/v1\/orders\/5928296"}},{"type":"orders","id":"5870747","attributes":{"store_id":173583,"customer_id":6226850,"identifier":"d3cb4d24-cb1c-4d3e-8271-12ddf1b4c00a","order_number":1735835,"user_name":"Jean-Paul Thibault","user_email":"daboss241@gmail.com","currency":"USD","currency_rate":"1.00000000","tax_name":"Sales Tax","tax_rate":"0.00","tax_inclusive":false,"status":"paid","status_formatted":"Paid","refunded":false,"refunded_at":null,"subtotal":9999,"discount_total":0,"tax":0,"setup_fee":0,"total":9999,"refunded_amount":0,"subtotal_usd":9999,"discount_total_usd":0,"tax_usd":0,"setup_fee_usd":0,"total_usd":9999,"refunded_amount_usd":0,"subtotal_formatted":"$99.99","discount_total_formatted":"$0.00","tax_formatted":"$0.00","setup_fee_formatted":"$0.00","total_formatted":"$99.99","refunded_amount_formatted":"$0.00","first_order_item":{"id":5810373,"order_id":5870747,"product_id":560475,"variant_id":871392,"price_id":1345396,"product_name":"Echo Unlimited LIFE","variant_name":"Default","price":9999,"quantity":1,"created_at":"2025-07-03T15:29:43.000000Z","updated_at":"2025-07-03T15:29:43.000000Z","test_mode":false},"urls":{"receipt":"https:\/\/app.lemonsqueezy.com\/my-orders\/d3cb4d24-cb1c-4d3e-8271-12ddf1b4c00a?expires=1775185259&signature=6aa6c1aade9c24e11c491f469f0ac881877841b6be2bd96324afa2a349b5ba84"},"created_at":"2025-07-03T15:29:41.000000Z","updated_at":"2025-07-15T00:51:44.000000Z","test_mode":false},"relationships":{"store":{"links":{"related":"https:\/\/api.lemonsqueezy.com\/v1\/orders\/5870747\/store","self":"https:\/\/api.lemonsqueezy.com\/v1\/orders\/5870747\/relationships\/store"}},"customer":{"links":{"related":"https:\/\/api.lemonsqueezy.com\/v1\/orders\/5870747\/customer","self":"https:\/\/api.lemonsqueezy.com\/v1\/orders\/5870747\/relationships\/customer"}},"order-items":{"links":{"related":"https:\/\/api.lemonsqueezy.com\/v1\/orders\/5870747\/order-items","self":"https:\/\/api.lemonsqueezy.com\/v1\/orders\/5870747\/relationships\/order-items"}},"subscriptions":{"links":{"related":"https:\/\/api.lemonsqueezy.com\/v1\/orders\/5870747\/subscriptions","self":"https:\/\/api.lemonsqueezy.com\/v1\/orders\/5870747\/relationships\/subscriptions"}},"license-keys":{"links":{"related":"https:\/\/api.lemonsqueezy.com\/v1\/orders\/5870747\/license-keys","self":"https:\/\/api.lemonsqueezy.com\/v1\/orders\/5870747\/relationships\/license-keys"}},"discount-redemptions":{"links":{"related":"https:\/\/api.lemonsqueezy.com\/v1\/orders\/5870747\/discount-redemptions","self":"https:\/\/api.lemonsqueezy.com\/v1\/orders\/5870747\/relationships\/discount-redemptions"}}},"links":{"self":"https:\/\/api.lemonsqueezy.com\/v1\/orders\/5870747"}},{"type":"orders","id":"5681053","attributes":{"store_id":173583,"customer_id":5985316,"identifier":"0f27bd61-7311-44cb-a7fc-15bc120e9db5","order_number":1735834,"user_name":"Michael J Puglin","user_email":"mpuglin@gmail.com","currency":"USD","currency_rate":"1.00000000","tax_name":"Sales Tax","tax_rate":"6.00","tax_inclusive":false,"status":"paid","status_formatted":"Paid","refunded":false,"refunded_at":null,"subtotal":9999,"discount_total":0,"tax":600,"setup_fee":0,"total":10599,"refunded_amount":0,"subtotal_usd":9999,"discount_total_usd":0,"tax_usd":600,"setup_fee_usd":0,"total_usd":10599,"refunded_amount_usd":0,"subtotal_formatted":"$99.99","discount_total_formatted":"$0.00","tax_formatted":"$6.00","setup_fee_formatted":"$0.00","total_formatted":"$105.99","refunded_amount_formatted":"$0.00","first_order_item":{"id":5619144,"order_id":5681053,"product_id":510069,"variant_id":794862,"price_id":1225162,"product_name":"Echo Unlimited","variant_name":"Echo Lifetime","price":9999,"quantity":1,"created_at":"2025-06-07T14:14:52.000000Z","updated_at":"2025-06-07T14:14:52.000000Z","test_mode":false},"urls":{"receipt":"https:\/\/app.lemonsqueezy.com\/my-orders\/0f27bd61-7311-44cb-a7fc-15bc120e9db5?expires=1775185259&signature=fea2c331013c8de9a9db78913630f7c18afa18e22769fdab84d90ceba989aea1"},"created_at":"2025-06-07T14:14:51.000000Z","updated_at":"2025-07-01T01:15:17.000000Z","test_mode":false},"relationships":{"store":{"links":{"related":"https:\/\/api.lemonsqueezy.com\/v1\/orders\/5681053\/store","self":"https:\/\/api.lemonsqueezy.com\/v1\/orders\/5681053\/relationships\/store"}},"customer":{"links":{"related":"https:\/\/api.lemonsqueezy.com\/v1\/orders\/5681053\/customer","self":"https:\/\/api.lemonsqueezy.com\/v1\/orders\/5681053\/relationships\/customer"}},"order-items":{"links":{"related":"https:\/\/api.lemonsqueezy.com\/v1\/orders\/5681053\/order-items","self":"https:\/\/api.lemonsqueezy.com\/v1\/orders\/5681053\/relationships\/order-items"}},"subscriptions":{"links":{"related":"https:\/\/api.lemonsqueezy.com\/v1\/orders\/5681053\/subscriptions","self":"https:\/\/api.lemonsqueezy.com\/v1\/orders\/5681053\/relationships\/subscriptions"}},"license-keys":{"links":{"related":"https:\/\/api.lemonsqueezy.com\/v1\/orders\/5681053\/license-keys","self":"https:\/\/api.lemonsqueezy.com\/v1\/orders\/5681053\/relationships\/license-keys"}},"discount-redemptions":{"links":{"related":"https:\/\/api.lemonsqueezy.com\/v1\/orders\/5681053\/discount-redemptions","self":"https:\/\/api.lemonsqueezy.com\/v1\/orders\/5681053\/relationships\/discount-redemptions"}}},"links":{"self":"https:\/\/api.lemonsqueezy.com\/v1\/orders\/5681053"}},{"type":"orders","id":"5634155","attributes":{"store_id":173583,"customer_id":5936819,"identifier":"e834ce23-085c-4de1-a119-c69aa6d3ce7e","order_number":1735833,"user_name":"Jason LaMonica","user_email":"vonsteindamion@gmail.com","currency":"USD","currency_rate":"1.00000000","tax_name":"Sales Tax","tax_rate":"0.00","tax_inclusive":false,"status":"refunded","status_formatted":"Refunded","refunded":true,"refunded_at":"2025-06-02T20:39:57.000000Z","subtotal":1499,"discount_total":0,"tax":0,"setup_fee":0,"total":1499,"refunded_amount":1499,"subtotal_usd":1499,"discount_total_usd":0,"tax_usd":0,"setup_fee_usd":0,"total_usd":1499,"refunded_amount_usd":1499,"subtotal_formatted":"$14.99","discount_total_formatted":"$0.00","tax_formatted":"$0.00","setup_fee_formatted":"$0.00","total_formatted":"$14.99","refunded_amount_formatted":"$14.99","first_order_item":{"id":5572712,"order_id":5634155,"product_id":510069,"variant_id":794871,"price_id":1225163,"product_name":"Echo Unlimited","variant_name":"Echo Unlimited","price":1499,"quantity":1,"created_at":"2025-06-01T05:42:11.000000Z","updated_at":"2025-06-01T05:42:11.000000Z","test_mode":false},"urls":{"receipt":"https:\/\/app.lemonsqueezy.com\/my-orders\/e834ce23-085c-4de1-a119-c69aa6d3ce7e?expires=1775185259&signature=6f6e6d86e91f7f31f2d33364de64ce554862c7880843db0cda4c9863980e2924"},"created_at":"2025-06-01T05:42:10.000000Z","updated_at":"2025-07-01T01:15:17.000000Z","test_mode":false},"relationships":{"store":{"links":{"related":"https:\/\/api.lemonsqueezy.com\/v1\/orders\/5634155\/store","self":"https:\/\/api.lemonsqueezy.com\/v1\/orders\/5634155\/relationships\/store"}},"customer":{"links":{"related":"https:\/\/api.lemonsqueezy.com\/v1\/orders\/5634155\/customer","self":"https:\/\/api.lemonsqueezy.com\/v1\/orders\/5634155\/relationships\/customer"}},"order-items":{"links":{"related":"https:\/\/api.lemonsqueezy.com\/v1\/orders\/5634155\/order-items","self":"https:\/\/api.lemonsqueezy.com\/v1\/orders\/5634155\/relationships\/order-items"}},"subscriptions":{"links":{"related":"https:\/\/api.lemonsqueezy.com\/v1\/orders\/5634155\/subscriptions","self":"https:\/\/api.lemonsqueezy.com\/v1\/orders\/5634155\/relationships\/subscriptions"}},"license-keys":{"links":{"related":"https:\/\/api.lemonsqueezy.com\/v1\/orders\/5634155\/license-keys","self":"https:\/\/api.lemonsqueezy.com\/v1\/orders\/5634155\/relationships\/license-keys"}},"discount-redemptions":{"links":{"related":"https:\/\/api.lemonsqueezy.com\/v1\/orders\/5634155\/discount-redemptions","self":"https:\/\/api.lemonsqueezy.com\/v1\/orders\/5634155\/relationships\/discount-redemptions"}}},"links":{"self":"https:\/\/api.lemonsqueezy.com\/v1\/orders\/5634155"}},{"type":"orders","id":"5588046","attributes":{"store_id":173583,"customer_id":5755710,"identifier":"2c7d3b22-f82e-42e6-b58a-3aedda293036","order_number":1735832,"user_name":"Yoad","user_email":"yoad.elkayam@gmail.com","currency":"USD","currency_rate":"1.00000000","tax_name":"Sales Tax","tax_rate":"0.00","tax_inclusive":false,"status":"paid","status_formatted":"Paid","refunded":false,"refunded_at":null,"subtotal":1499,"discount_total":1424,"tax":0,"setup_fee":0,"total":75,"refunded_amount":0,"subtotal_usd":1499,"discount_total_usd":1424,"tax_usd":0,"setup_fee_usd":0,"total_usd":75,"refunded_amount_usd":0,"subtotal_formatted":"$14.99","discount_total_formatted":"$14.24","tax_formatted":"$0.00","setup_fee_formatted":"$0.00","total_formatted":"$0.75","refunded_amount_formatted":"$0.00","first_order_item":{"id":5526980,"order_id":5588046,"product_id":510069,"variant_id":794871,"price_id":1225163,"product_name":"Echo Unlimited","variant_name":"Echo Unlimited","price":1499,"quantity":1,"created_at":"2025-05-25T22:17:50.000000Z","updated_at":"2025-05-25T22:17:50.000000Z","test_mode":false},"urls":{"receipt":"https:\/\/app.lemonsqueezy.com\/my-orders\/2c7d3b22-f82e-42e6-b58a-3aedda293036?expires=1775185259&signature=a38f78a445c17e14f355c09d6bbd9216aa16b6075ce5f3b17b71cc0ba5221a62"},"created_at":"2025-05-25T22:17:49.000000Z","updated_at":"2025-07-01T01:15:17.000000Z","test_mode":false},"relationships":{"store":{"links":{"related":"https:\/\/api.lemonsqueezy.com\/v1\/orders\/5588046\/store","self":"https:\/\/api.lemonsqueezy.com\/v1\/orders\/5588046\/relationships\/store"}},"customer":{"links":{"related":"https:\/\/api.lemonsqueezy.com\/v1\/orders\/5588046\/customer","self":"https:\/\/api.lemonsqueezy.com\/v1\/orders\/5588046\/relationships\/customer"}},"order-items":{"links":{"related":"https:\/\/api.lemonsqueezy.com\/v1\/orders\/5588046\/order-items","self":"https:\/\/api.lemonsqueezy.com\/v1\/orders\/5588046\/relationships\/order-items"}},"subscriptions":{"links":{"related":"https:\/\/api.lemonsqueezy.com\/v1\/orders\/5588046\/subscriptions","self":"https:\/\/api.lemonsqueezy.com\/v1\/orders\/5588046\/relationships\/subscriptions"}},"license-keys":{"links":{"related":"https:\/\/api.lemonsqueezy.com\/v1\/orders\/5588046\/license-keys","self":"https:\/\/api.lemonsqueezy.com\/v1\/orders\/5588046\/relationships\/license-keys"}},"discount-redemptions":{"links":{"related":"https:\/\/api.lemonsqueezy.com\/v1\/orders\/5588046\/discount-redemptions","self":"https:\/\/api.lemonsqueezy.com\/v1\/orders\/5588046\/relationships\/discount-redemptions"}}},"links":{"self":"https:\/\/api.lemonsqueezy.com\/v1\/orders\/5588046"}},{"type":"orders","id":"5587964","attributes":{"store_id":173583,"customer_id":5755710,"identifier":"e9f3a495-bd93-487c-b2e2-b849a42f431e","order_number":1735831,"user_name":"Yoad","user_email":"yoad.elkayam@gmail.com","currency":"USD","currency_rate":"1.00000000","tax_name":"Sales Tax","tax_rate":"0.00","tax_inclusive":false,"status":"paid","status_formatted":"Paid","refunded":false,"refunded_at":null,"subtotal":1499,"discount_total":1424,"tax":0,"setup_fee":0,"total":75,"refunded_amount":0,"subtotal_usd":1499,"discount_total_usd":1424,"tax_usd":0,"setup_fee_usd":0,"total_usd":75,"refunded_amount_usd":0,"subtotal_formatted":"$14.99","discount_total_formatted":"$14.24","tax_formatted":"$0.00","setup_fee_formatted":"$0.00","total_formatted":"$0.75","refunded_amount_formatted":"$0.00","first_order_item":{"id":5526898,"order_id":5587964,"product_id":510069,"variant_id":794871,"price_id":1225163,"product_name":"Echo Unlimited","variant_name":"Echo Unlimited","price":1499,"quantity":1,"created_at":"2025-05-25T21:57:08.000000Z","updated_at":"2025-05-25T21:57:08.000000Z","test_mode":false},"urls":{"receipt":"https:\/\/app.lemonsqueezy.com\/my-orders\/e9f3a495-bd93-487c-b2e2-b849a42f431e?expires=1775185259&signature=bbc3cf57dad1c21c0be3df20bbb876004080c5dda82f00845859540132cd0a57"},"created_at":"2025-05-25T21:57:07.000000Z","updated_at":"2025-07-01T01:15:17.000000Z","test_mode":false},"relationships":{"store":{"links":{"related":"https:\/\/api.lemonsqueezy.com\/v1\/orders\/5587964\/store","self":"https:\/\/api.lemonsqueezy.com\/v1\/orders\/5587964\/relationships\/store"}},"customer":{"links":{"related":"https:\/\/api.lemonsqueezy.com\/v1\/orders\/5587964\/customer","self":"https:\/\/api.lemonsqueezy.com\/v1\/orders\/5587964\/relationships\/customer"}},"order-items":{"links":{"related":"https:\/\/api.lemonsqueezy.com\/v1\/orders\/5587964\/order-items","self":"https:\/\/api.lemonsqueezy.com\/v1\/orders\/5587964\/relationships\/order-items"}},"subscriptions":{"links":{"related":"https:\/\/api.lemonsqueezy.com\/v1\/orders\/5587964\/subscriptions","self":"https:\/\/api.lemonsqueezy.com\/v1\/orders\/5587964\/relationships\/subscriptions"}},"license-keys":{"links":{"related":"https:\/\/api.lemonsqueezy.com\/v1\/orders\/5587964\/license-keys","self":"https:\/\/api.lemonsqueezy.com\/v1\/orders\/5587964\/relationships\/license-keys"}},"discount-redemptions":{"links":{"related":"https:\/\/api.lemonsqueezy.com\/v1\/orders\/5587964\/discount-redemptions","self":"https:\/\/api.lemonsqueezy.com\/v1\/orders\/5587964\/relationships\/discount-redemptions"}}},"links":{"self":"https:\/\/api.lemonsqueezy.com\/v1\/orders\/5587964"}}]}